{
  "_id": "...",
  "name": "Jack",
  "surname": "Ma",
  "address": [
    {
      "country": "China",
      "city": "..."
    },
    {
      "country": "China",
      "city": "..."
    }
  ],
  "field1": {
    "field11": {
      "field111": "..."
    },
    "field12": "..."
  },
  "description": "Lorem Ipsum dolor sit ampsum dolor sit ampsum dolor sit ampsum dolor sit ampsum dolor. sit ampsum dolor sit ampsum dolor sit ampsum dolor sit. ampsum dolor sit ampsum dolor sit am."
}

